team.utf8
…
Question 4

unique(happy_df$party)

##  [1] "Independent"        "Strong democrat"    "Ind,near dem"      
##  [4] "Not str republican" "Ind,near rep"       "Not str democrat"  
##  [7] "Strong republican"  "Other party"        "No answer"         
## [10] "Don't know"

happy_indep_df <- happy_df %>%
  group_by(mstatus) %>%
  filter(party=="Independent" | party=="Ind,near rep" | party=="Ind,near dem")
happy_indep_df

## # A tibble: 18,564 x 10
## # Groups:   mstatus [5]
##     year happy    party    income    race  sex   school mstatus      id ballot  
##    <dbl> <chr>    <chr>    <chr>     <chr> <chr> <chr>  <chr>     <dbl> <chr>   
##  1  1972 Pretty ~ Indepen~ Not appl~ White Fema~ 12     Married       3 Not app~
##  2  1972 Pretty ~ Ind,nea~ Not appl~ White Male  14     Never ma~     6 Not app~
##  3  1972 Very ha~ Ind,nea~ Not appl~ White Male  14     Married      17 Not app~
##  4  1972 Very ha~ Ind,nea~ Not appl~ White Fema~ 8      Married      18 Not app~
##  5  1972 Very ha~ Ind,nea~ Not appl~ White Fema~ 17     Married      19 Not app~
##  6  1972 Very ha~ Ind,nea~ Not appl~ White Fema~ 14     Never ma~    20 Not app~
##  7  1972 Very ha~ Ind,nea~ Not appl~ White Male  12     Married      21 Not app~
##  8  1972 Very ha~ Ind,nea~ Not appl~ White Male  13     Married      23 Not app~
##  9  1972 Very ha~ Ind,nea~ Not appl~ White Fema~ 12     Married      24 Not app~
## 10  1972 Very ha~ Ind,nea~ Not appl~ White Fema~ 12     Married      26 Not app~
## # ... with 18,554 more rows
…
## # A tibble: 5 x 2
##   mstatus       Total_Happy_Indep
##   <chr>                     <int>
## 1 Divorced                   2377
## 2 Married                    9962
## 3 Never married              4475
## 4 Separated                   582
## 5 Widowed                    1168

unhappy_indep_df <- unhappy_df %>%
  group_by(mstatus) %>%
  filter(party=="Independent" | party=="Ind,near rep" | party=="Ind,near dem")
unhappy_indep_df

## # A tibble: 3,022 x 10
## # Groups:   mstatus [5]
##     year happy    party    income    race  sex   school mstatus      id ballot  
##    <dbl> <chr>    <chr>    <chr>     <chr> <chr> <chr>  <chr>     <dbl> <chr>   
##  1  1972 Not too~ Ind,nea~ Not appl~ White Fema~ 16     Never ma~     1 Not app~
##  2  1972 Not too~ Ind,nea~ Not appl~ White Male  13     Divorced      7 Not app~
##  3  1972 Not too~ Ind,nea~ Not appl~ White Male  16     Never ma~     8 Not app~
##  4  1972 Not too~ Indepen~ Not appl~ White Fema~ 11     Married      74 Not app~
##  5  1972 Not too~ Indepen~ Not appl~ Black Fema~ 11     Separated   118 Not app~
##  6  1972 Not too~ Ind,nea~ Not appl~ White Fema~ 12     Married     128 Not app~
##  7  1972 Not too~ Ind,nea~ Not appl~ White Male  6      Married     131 Not app~
##  8  1972 Not too~ Indepen~ Not appl~ White Male  14     Married     143 Not app~
##  9  1972 Not too~ Ind,nea~ Not appl~ White Male  15     Married     191 Not app~
## 10  1972 Not too~ Ind,nea~ Not appl~ White Fema~ 9      Married     246 Not app~
## # ... with 3,012 more rows
…
